{
    "swagger": "2.0",
    "info": {
        "title": "Winit API",
        "version": "1.0.0"
    },
    "basePath": "/api/",
    "paths": {
        "/category": {
            "get": {
                "summary": "List category",
                "operationId": "getCategoryList",
                "responses": {
                    "200": {
                        "description": "successful operation"
                    },
                    "406": {
                        "description": "not acceptable"
                    },
                    "500": {
                        "description": "internal server error"
                    }
                }
            }
        },
        "/category/{categoryId}": {
            "get": {
                "summary": "Get a category by id",
                "operationId": "getCategoryById",
                "parameters": [
                    {
                        "name": "categoryId",
                        "in": "path",
                        "description": "Target category.",
                        "required": true,
                        "type": "integer"
                    }
                ],
                "responses": {
                    "200": {
                        "description": "successful operation"
                    },
                    "406": {
                        "description": "not acceptable"
                    },
                    "500": {
                        "description": "internal server error"
                    }
                }
            }
        },
        "/image": {
            "get": {
                "summary": "List images",
                "operationId": "getImageLists",
                "responses": {
                    "200": {
                        "description": "successful operation"
                    },
                    "406": {
                        "description": "not acceptable"
                    },
                    "500": {
                        "description": "internal server error"
                    }
                }
            }
        },
        "/image/{imageId}": {
            "get": {
                "summary": "Get a image by id",
                "operationId": "getImageById",
                "parameters": [
                    {
                        "name": "imageId",
                        "in": "path",
                        "description": "Target Image.",
                        "required": true,
                        "type": "integer"
                    }
                ],
                "responses": {
                    "200": {
                        "description": "successful operation"
                    },
                    "406": {
                        "description": "not acceptable"
                    },
                    "500": {
                        "description": "internal server error"
                    }
                }
            }
        },
        "/item": {
            "get": {
                "summary": "List Items",
                "operationId": "getItemLists",
                "responses": {
                    "200": {
                        "description": "successful operation"
                    },
                    "406": {
                        "description": "not acceptable"
                    },
                    "500": {
                        "description": "internal server error"
                    }
                }
            }
        },
        "/item/{itemId}": {
            "get": {
                "summary": "Get an item by id",
                "operationId": "getItemById",
                "parameters": [
                    {
                        "name": "itemId",
                        "in": "path",
                        "description": "Target item.",
                        "required": true,
                        "type": "integer"
                    }
                ],
                "responses": {
                    "200": {
                        "description": "successful operation"
                    },
                    "406": {
                        "description": "not acceptable"
                    },
                    "500": {
                        "description": "internal server error"
                    }
                }
            }
        },
        "/ticket": {
            "get": {
                "summary": "List tickets",
                "operationId": "getTicketLists",
                "responses": {
                    "200": {
                        "description": "successful operation"
                    },
                    "406": {
                        "description": "not acceptable"
                    },
                    "500": {
                        "description": "internal server error"
                    }
                }
            }
        },
        "/ticket/{ticketId}": {
            "get": {
                "summary": "Get a ticket by id",
                "operationId": "getTicketById",
                "parameters": [
                    {
                        "name": "ticketId",
                        "in": "path",
                        "description": "Target Ticket.",
                        "required": true,
                        "type": "integer"
                    }
                ],
                "responses": {
                    "200": {
                        "description": "successful operation"
                    },
                    "406": {
                        "description": "not acceptable"
                    },
                    "500": {
                        "description": "internal server error"
                    }
                }
            }
        }
    },
    "definitions": {}
}